{
    "changed": false,
    "failed": true,
    "msg": "All items completed",
    "results": [
        {
            "ansible_loop_var": "item",
            "changed": false,
            "compliance_report": {
                "complies": false,
                "get_interfaces_ip": {
                    "complies": false,
                    "extra": [],
                    "missing": [],
                    "present": {
                        "GigabitEthernet3": {
                            "complies": false,
                            "diff": {
                                "complies": false,
                                "extra": [],
                                "missing": [],
                                "present": {
                                    "ipv4": {
                                        "complies": false,
                                        "diff": {
                                            "complies": false,
                                            "extra": [],
                                            "missing": [],
                                            "present": {
                                                "10.0.3.6": {
                                                    "complies": false,
                                                    "diff": {
                                                        "complies": false,
                                                        "extra": [],
                                                        "missing": [],
                                                        "present": {
                                                            "prefix_length": {
                                                                "actual_value": 30,
                                                                "complies": false,
                                                                "expected_value": 31,
                                                                "nested": false
                                                            }
                                                        }
                                                    },
                                                    "nested": true
                                                }
                                            }
                                        },
                                        "nested": true
                                    }
                                }
                            },
                            "nested": true
                        }
                    }
                },
                "skipped": []
            },
            "failed": true,
            "invocation": {
                "module_args": {
                    "data": null,
                    "dev_os": "ios",
                    "hostname": "10.0.0.52",
                    "models": null,
                    "optional_args": null,
                    "password": "VALUE_SPECIFIED_IN_NO_LOG_PARAMETER",
                    "provider": {
                        "dev_os": "ios",
                        "hostname": "10.0.0.52",
                        "password": "VALUE_SPECIFIED_IN_NO_LOG_PARAMETER",
                        "timeout": 60,
                        "username": null
                    },
                    "timeout": 60,
                    "username": "VALUE_SPECIFIED_IN_NO_LOG_PARAMETER",
                    "validation_file": "./results/service_validation/pe2.********.lab_interfaces_validation.yml"
                }
            },
            "item": "interfaces",
            "msg": "Device does not comply with policy"
        },
        {
            "ansible_loop_var": "item",
            "changed": false,
            "compliance_report": {
                "complies": false,
                "get_bgp_neighbors": {
                    "complies": false,
                    "extra": [],
                    "missing": [],
                    "present": {
                        "VRF_ACME": {
                            "complies": false,
                            "diff": {
                                "complies": false,
                                "extra": [],
                                "missing": [],
                                "present": {
                                    "peers": {
                                        "complies": false,
                                        "diff": {
                                            "complies": false,
                                            "extra": [],
                                            "missing": [],
                                            "present": {
                                                "10.0.3.5": {
                                                    "complies": false,
                                                    "diff": {
                                                        "complies": false,
                                                        "extra": [],
                                                        "missing": [],
                                                        "present": {
                                                            "address_family": {
                                                                "complies": false,
                                                                "diff": {
                                                                    "complies": false,
                                                                    "extra": [],
                                                                    "missing": [
                                                                        "vpnv4"
                                                                    ],
                                                                    "present": {}
                                                                },
                                                                "nested": true
                                                            },
                                                            "is_up": {
                                                                "complies": true,
                                                                "nested": false
                                                            }
                                                        }
                                                    },
                                                    "nested": true
                                                }
                                            }
                                        },
                                        "nested": true
                                    },
                                    "router_id": {
                                        "complies": true,
                                        "nested": false
                                    }
                                }
                            },
                            "nested": true
                        }
                    }
                },
                "skipped": []
            },
            "failed": true,
            "invocation": {
                "module_args": {
                    "data": null,
                    "dev_os": "ios",
                    "hostname": "10.0.0.52",
                    "models": null,
                    "optional_args": null,
                    "password": "VALUE_SPECIFIED_IN_NO_LOG_PARAMETER",
                    "provider": {
                        "dev_os": "ios",
                        "hostname": "10.0.0.52",
                        "password": "VALUE_SPECIFIED_IN_NO_LOG_PARAMETER",
                        "timeout": 60,
                        "username": null
                    },
                    "timeout": 60,
                    "username": "VALUE_SPECIFIED_IN_NO_LOG_PARAMETER",
                    "validation_file": "./results/service_validation/pe2.********.lab_bgp_validation.yml"
                }
            },
            "item": "bgp",
            "msg": "Device does not comply with policy"
        }
    ]
}